…
maternal age, maternal nativity, parity, maternal marital status, infant sex, infant birthweight

``` r
# data maternal age

birth_data_un %>% 
  select(year, cd, birthtot, age1tot:age9tot) %>%
  gather(maternal_age, num, age1tot:age9tot) %>% 
  group_by(year, cd, birthtot) %>% 
  summarise(ttl = sum(num, na.rm = TRUE)) %>% 
  mutate(delta = birthtot - ttl, percent = delta/birthtot) %>% 
  arrange(desc(delta))
```

    ## # A tibble: 885 x 6
    ## # Groups:   year, cd [885]
    ##     year    cd birthtot   ttl delta percent
    ##    <dbl> <dbl>    <dbl> <dbl> <dbl>   <dbl>
    ##  1  2003   102      842   833     9 0.0107 
    ##  2  2012   105      579   570     9 0.0155 
    ##  3  2000   103     2320  2312     8 0.00345
    ##  4  2000   401     2533  2525     8 0.00316
    ##  5  2002   316     1446  1438     8 0.00553
    ##  6  2002   411      675   667     8 0.0119 
    ##  7  2002   501     2447  2439     8 0.00327
    ##  8  2003   209     2694  2686     8 0.00297
    ##  9  2005   112     2892  2884     8 0.00277
    ## 10  2005   313     1171  1163     8 0.00683
    ## # ... with 875 more rows
…
Moreover, the original maternal age data contains nine categories, since the smaller age category contains only a little number of birth characteristics, we joint some group together.

``` r
# data for maternal nativity

birth_data_un %>% 
  select(year, cd, birthtot, nat1tot:nat2tot) %>%
  gather(born_demo, num, nat1tot:nat2tot) %>% 
  group_by(year, cd, birthtot) %>% 
  summarise(ttl = sum(num, na.rm = TRUE)) %>% 
  mutate(delta = birthtot - ttl, percent = delta/birthtot) %>% 
  arrange(desc(percent))
```

    ## # A tibble: 885 x 6
    ## # Groups:   year, cd [885]
    ##     year    cd birthtot   ttl delta percent
    ##    <dbl> <dbl>    <dbl> <dbl> <dbl>   <dbl>
    ##  1  2003   212     1919  1875    44  0.0229
    ##  2  2002   104      818   800    18  0.0220
    ##  3  2001   212     1964  1921    43  0.0219
    ##  4  2000   103     2320  2275    45  0.0194
    ##  5  2003   110     1669  1638    31  0.0186
    ##  6  2005   203     1293  1271    22  0.0170
    ##  7  2004   105      481   473     8  0.0166
    ##  8  2002   103     2167  2131    36  0.0166
    ##  9  2002   202      912   897    15  0.0164
    ## 10  2006   203     1353  1331    22  0.0163
    ## # ... with 875 more rows
…
For the data for maternal nativity, the largest "delta" is 44, with percent 0.0229, we can fill the NA as we indicated above, and then tidy the new non-missing data.

``` r
# data for maternal marital status 

birth_data_un %>% 
  select(year, cd, birthtot, mar1tot:mar2tot) %>%
  gather(marry_status, num, mar1tot:mar2tot) %>% 
  group_by(year, cd, birthtot) %>% 
  summarise(ttl = sum(num, na.rm = TRUE)) %>% 
  mutate(delta = birthtot - ttl, percent = delta/birthtot) %>% 
  arrange(desc(percent))
```

    ## # A tibble: 885 x 6
    ## # Groups:   year, cd [885]
    ##     year    cd birthtot   ttl delta  percent
    ##    <dbl> <dbl>    <dbl> <dbl> <dbl>    <dbl>
    ##  1  2002   205     2596  2595     1 0.000385
    ##  2  2000   101      436   436     0 0       
    ##  3  2000   102      745   745     0 0       
    ##  4  2000   103     2320  2320     0 0       
    ##  5  2000   104      777   777     0 0       
    ##  6  2000   105      436   436     0 0       
    ##  7  2000   106     1259  1259     0 0       
    ##  8  2000   107     2568  2568     0 0       
    ##  9  2000   108     2734  2734     0 0       
    ## 10  2000   109     1584  1584     0 0       
    ## # ... with 875 more rows
…
For the data for parity, the largest "delta" is 1, with percent 0.000385, we can fill the NA as we indicated above, and then tidy the new non-missing data.

``` r
# data for infant sex
birth_data_un %>% 
  select(year, cd, birthtot, sex1tot:sex2tot) %>%
  gather(infant_sex, num, sex1tot:sex2tot) %>% 
  group_by(year, cd, birthtot) %>% 
  summarise(ttl = sum(num, na.rm = TRUE)) %>% 
  mutate(delta = birthtot - ttl, percent = delta/birthtot) %>% 
  arrange(desc(percent))
```

    ## # A tibble: 885 x 6
    ## # Groups:   year, cd [885]
    ##     year    cd birthtot   ttl delta percent
    ##    <dbl> <dbl>    <dbl> <dbl> <dbl>   <dbl>
    ##  1  2000   101      436   436     0       0
    ##  2  2000   102      745   745     0       0
    ##  3  2000   103     2320  2320     0       0
    ##  4  2000   104      777   777     0       0
    ##  5  2000   105      436   436     0       0
    ##  6  2000   106     1259  1259     0       0
    ##  7  2000   107     2568  2568     0       0
    ##  8  2000   108     2734  2734     0       0
    ##  9  2000   109     1584  1584     0       0
    ## 10  2000   110     1785  1785     0       0
    ## # ... with 875 more rows
…
maternal nativity and maternal age

``` r
# data for maternal nativity * maternal age
birth_data_un %>% 
  select(year, cd, birthtot, nat1tot_a1, nat2tot_a1, nat1tot_a2, nat2tot_a2, nat1tot_a3, nat2tot_a3, nat1tot_a4, nat2tot_a4) %>%
  gather(nativity_age, num, nat1tot_a1:nat2tot_a4) %>% 
  group_by(year, cd, birthtot) %>% 
  summarise(ttl = sum(num, na.rm = TRUE)) %>% 
  mutate(delta = birthtot - ttl, percent = delta/birthtot) %>% 
  arrange(desc(percent))
```

    ## # A tibble: 885 x 6
    ## # Groups:   year, cd [885]
    ##     year    cd birthtot   ttl delta percent
    ##    <dbl> <dbl>    <dbl> <dbl> <dbl>   <dbl>
    ##  1  2003   102      842   821    21  0.0249
    ##  2  2003   212     1919  1875    44  0.0229
    ##  3  2002   104      818   800    18  0.0220
    ##  4  2001   212     1964  1921    43  0.0219
    ##  5  2000   103     2320  2275    45  0.0194
    ##  6  2004   105      481   472     9  0.0187
    ##  7  2003   110     1669  1638    31  0.0186
    ##  8  2002   101      389   382     7  0.0180
    ##  9  2004   101      616   605    11  0.0179
    ## 10  2005   203     1293  1271    22  0.0170
    ## # ... with 875 more rows
…
