…
Problem 1: choose which source of data to do the analysis

``` r
tibble(
  community_district = names(birth9901),
  zip_code = names(birth9901)
  #census_tract = names(birth0004)
) 
```

    ## # A tibble: 251 x 2
    ##    community_district zip_code
    ##    <chr>              <chr>   
    ##  1 zip                zip     
    ##  2 birthtot           birthtot
    ##  3 age1tot            age1tot 
    ##  4 age2tot            age2tot 
    ##  5 age3tot            age3tot 
    ##  6 age4tot            age4tot 
    ##  7 age5tot            age5tot 
    ##  8 age6tot            age6tot 
    ##  9 age7tot            age7tot 
    ## 10 age8tot            age8tot 
    ## # ... with 241 more rows
…
